{
	"name": "FA5e",
	"title": "Feature Automation 5e",
	"description": "A simple module to add it various automative assitant scripts",
	"author": "Kandashi",
	"version": "0.0.1",
	"minimumCoreVersion": "0.6.5",
	"compatibleCoreVersion": "0.6.6",
	"system": "dnd5e",
	"scripts": [
		"settings.js",
                "scripts/SongofRest.js",
                "scripts/UndeadFortitude.js",
		"scripts/FiendishResiliance.js"
	], 
	"url": "https://github.com/kandashi/Feature-Automation-5e",
	"manifest": "https://raw.githubusercontent.com/kandashi/Feature-Automation-5e/master/module.json",
	"download": "https://github.com/kandashi/Feature-Automation-5e/archive/master.zip"
}
